{
	"name": "Your project name",
	"dockerComposeFile": ["docker-compose.yml"],
	"service": "devenv",
	"workspaceFolder": "/workspace",
	"extensions": [
        "emeraldwalk.runonsave",
        "EthanSK.restore-terminals",
        "gitlab.gitlab-workflow",
        "hashicorp.terraform",
        "mikestead.dotenv",
        "streetsidesoftware.code-spell-checker",
        "yzhang.markdown-all-in-one"
	],
	"remoteUser": "dev",
	"settings": {
		"cSpell.ignorePaths": [
            "*.json",
            ".vscode",
            "*.code-workspace",
            "*.yaml",
            "*.yml"
        ],
        "cSpell.words": [
        ],
        "emeraldwalk.runonsave": {
            "commands": [
                {
                    "match": "\\.tf$",
                    "isAsync": true,
                    "cmd": "terraform fmt ${fileDirname}"
                }
            ]
        },
        "files.associations": {
			"*.env.dist": "dotenv",
            "*.env": "dotenv",
			".envrc": "dotenv"
        },
        "files.autoSave": "afterDelay",
        "files.autoSaveDelay": 5000,
        "files.eol": "\n",
        "terminal.integrated.profiles.linux": {
            "bash": {"path": "bash", "args": ["-l"]},
            "zsh": {"path": "zsh", "args": ["-l"]}
        },
        "terminal.integrated.defaultProfile.linux": "bash",
        "terminal.integrated.enablePersistentSessions": true,
        "terminal.integrated.persistentSessionReviveProcess": "never"
	}
}
